; NON-PLATED HOLES START AT T1
; THROUGH (PLATED) HOLES START AT T100
M48
INCH
T1C0.125984
T100C0.066929
T101C0.035433
T102C0.039111
T103C0.042000
T104C0.015748
T105C0.035000
%
T1
X031549Y001620
X001549Y032620
X001549Y001620
X031549Y032620
T100
X001524Y010262
X001549Y005620
X001508Y008706
X001537Y007163
T101
X018549Y023620
X020549Y004620
X022549Y004620
X024549Y004620
X020549Y017620
X022549Y017620
X024549Y017620
X021549Y004620
X023549Y004620
X025549Y004620
X027549Y004620
X029549Y004620
X021549Y017620
X023549Y017620
X029549Y017620
X027549Y017620
X025549Y017620
X026549Y004620
X028549Y004620
X028549Y017620
X026549Y017620
X020549Y023620
X022549Y023620
X024549Y023620
X021549Y023620
X023549Y023620
X029549Y023620
X027549Y023620
X025549Y023620
X028549Y023620
X026549Y023620
X017549Y011620
X019549Y011620
X018549Y011620
X020549Y011620
X022549Y011620
X024549Y011620
X021549Y011620
X023549Y011620
X029549Y011620
X027549Y011620
X025549Y011620
X028549Y011620
X026549Y011620
X017549Y004620
X019549Y004620
X017549Y017620
X019549Y017620
X018549Y004620
X018549Y017620
X017549Y023620
X019549Y023620
T102
X006549Y018620
X012549Y021620
X012549Y013620
X006549Y011620
X012549Y018620
X006549Y016620
X007691Y013621
X007549Y022620
X009549Y022620
X012549Y011620
X008549Y022620
X007692Y014621
X006549Y022620
X012549Y016620
X006549Y014620
X006549Y019620
X010549Y022620
X012549Y022620
X006549Y020620
X012549Y014620
X011549Y022620
X006549Y012620
X012549Y019620
X006549Y017620
X006549Y009620
X012549Y020620
X012549Y012620
X006549Y010620
X012549Y017620
X006549Y015620
X007691Y012620
X012549Y009620
X012549Y010620
X006549Y021620
X012549Y015620
X006549Y013620
X007691Y010620
T103
X020549Y032620
X021549Y028620
X021549Y032620
X007549Y025620
X008549Y025620
X022549Y028620
X022549Y032620
X007549Y030620
X008549Y030620
X009549Y025620
X009549Y030620
X020549Y028620
T104
X014549Y013620
X010549Y026620
X024549Y030620
X007549Y007620
X014549Y025620
X027549Y015620
T105
X005549Y021620
X004549Y021620
X003549Y021620
X002549Y021620
X005549Y025620
X004549Y025620
X003549Y025620
X002549Y025620
T00
M30
