; NON-PLATED HOLES START AT T1
; THROUGH (PLATED) HOLES START AT T100
M48
INCH
T1C0.125984
T100C0.066929
T101C0.035433
T102C0.039111
T103C0.042000
T104C0.035000
%
T1
X001382Y027287
X001382Y001287
X022382Y027287
X022382Y001287
T100
X001358Y009929
X001342Y008373
X001370Y006830
X001382Y005287
T101
X015382Y023287
X015382Y009287
X015382Y003376
X020382Y024287
X015382Y006287
X020382Y021287
X015382Y018376
X020382Y007287
X020427Y018376
X020360Y005353
X015382Y022287
X015382Y005353
X020382Y019287
X015382Y008287
X020338Y004376
X020382Y023287
X020382Y009287
X020382Y020287
X020382Y006287
X015382Y024287
X015382Y004376
X015382Y021287
X015382Y007287
X020382Y022287
X015382Y019376
X020382Y008287
X015382Y020376
X020360Y003376
T102
X006382Y011287
X010382Y018287
X006382Y016287
X012382Y013287
X011382Y018287
X006382Y008287
X012382Y005287
X012382Y018287
X007525Y008287
X006382Y014287
X012382Y011287
X006382Y006287
X012382Y016287
X012382Y008287
X007525Y006287
X006382Y012287
X006382Y017287
X012382Y014287
X006382Y009287
X012382Y006287
X006382Y010287
X006382Y015287
X007525Y009288
X012382Y012287
X006382Y007287
X007525Y010288
X012382Y017287
X012382Y009287
X006382Y013287
X007382Y018287
X012382Y010287
X006382Y005287
X008382Y018287
X006382Y018287
X012382Y015287
X009382Y018287
X012382Y007287
T103
X007382Y020287
X008382Y020287
X009382Y020287
X011382Y027287
X006382Y024287
X012382Y027287
X012382Y021287
X012382Y022287
X007382Y024287
X013382Y027287
X008382Y024287
X012382Y023287
T104
X004382Y020287
X003382Y020287
X002382Y020287
X005382Y016287
X004382Y016287
X003382Y016287
X002382Y016287
X005382Y020287
T00
M30
